euroenergy
…
#checking for NA's

country_totals%>%
  count(country_name)

## # A tibble: 36 x 2
##    country_name             n
##    <chr>                <int>
##  1 Albania                  8
##  2 Austria                  8
##  3 Belgium                  8
##  4 Bosnia & Herzegovina     8
##  5 Bulgaria                 8
##  6 Croatia                  8
##  7 Cyprus                   8
##  8 Czechia                  8
##  9 Denmark                  8
## 10 Estonia                  8
## #  with 26 more rows
…
